<?xml version="1.0" standalone="no"?>
<!DOCTYPE svg PUBLIC "-//W3C//DTD SVG 1.1//EN" "http://www.w3.org/Graphics/SVG/1.1/DTD/svg11.dtd" >
<!--
2013-9-30: Created.
-->
<svg>
<metadata>
Created by iconfont
</metadata>
<defs>

<font id="iconfont" horiz-adv-x="1024" >
  <font-face
    font-family="iconfont"
    font-weight="500"
    font-stretch="normal"
    units-per-em="1024"
    ascent="896"
    descent="-128"
  />
    <missing-glyph />
    
    <glyph glyph-name="dongjie" unicode="&#58950;" d="M499.599575 829.812555c-246.554372 0-447.133643-200.579271-447.133643-447.119317 0-246.559489 200.579271-447.134667 447.133643-447.134667 246.545162 0 447.12034 200.575178 447.12034 447.134667C946.719916 629.234307 746.144738 829.812555 499.599575 829.812555L499.599575 829.812555zM499.599575-33.249009c-229.351572 0-415.937131 186.590676-415.937131 415.94327 0 229.337245 186.585559 415.922804 415.937131 415.922804 229.338269 0 415.928944-186.585559 415.928944-415.922804C915.52852 153.340643 728.937844-33.249009 499.599575-33.249009L499.599575-33.249009zM818.027905 438.359049M369.890398 342.923466c-6.92369-10.175757-15.363919-23.098068-25.329898-38.758746-9.976212-15.668865-20.247136-32.348756-30.823006-50.048883-10.586103-17.701151-21.057595-35.30611-31.43392-52.79646-10.376325-17.500583-19.2269-33.169447-26.550703-46.998407-5.702885 6.924713-11.500938 12.512988-17.395182 16.784268-5.903453 4.273327-12.722766 8.030907-20.446681 11.292184 9.765411 10.986215 20.141736 24.204262 31.127951 39.673581 10.986215 15.459087 21.763676 32.04381 32.348756 49.743938 10.576893 17.701151 20.847817 35.801391 30.824029 54.32221 9.965979 18.511609 19.016099 36.317137 27.160593 53.407374 4.472871-8.954953 9.155521-16.175401 14.037714-21.667485C358.294292 352.383932 363.7874 347.395314 369.890398 342.923466zM333.87923 470.488817c-17.909905 21.973454-35.916001 41.704844-54.017264 59.204403-18.110473 17.49035-35.706223 32.749892-52.79646 45.777603l26.245757 31.127951c19.531845-16.279778 38.653345-33.474392 57.373709-51.575656 18.711154-18.110473 36.412304-35.916001 53.101405-53.40635L333.87923 470.488817zM510.274706 281.886321c-5.703909-2.850931-12.311397-8.144494-19.836791-15.869433-7.534604-7.735172-18.215874-20.552082-32.04381-38.452777-4.482081-5.702885-9.975189-12.20702-16.479323-19.531845-6.513344-7.323802-13.533224-14.858406-21.057595-22.582321-7.534604-7.735172-15.163351-15.46932-22.88829-23.194258-7.735172-7.724938-15.259542-14.647605-22.583344-20.751626-5.29254 5.702885-10.480702 10.376325-15.563464 14.038738-5.092995 3.66139-12.111852 7.53358-21.057595 11.596106 26.855648 16.269545 51.365878 36.107359 73.54911 59.510372 22.172999 23.393803 43.230594 52.386114 63.172785 86.976934 10.986215-9.766434 22.373567-15.870456 34.17945-18.312064 4.882194-0.819668 7.525394-2.651386 7.934716-5.493108C517.999644 286.970106 515.557012 284.32793 510.274706 281.886321zM477.314013 538.849764c-22.793122 0-43.945885-0.410346-63.47773-1.220804-19.531845-0.819668-37.031405-2.040473-52.490491-3.662413l0 40.894386c17.900695-2.041496 37.737486-3.566222 59.510372-4.578272 21.763676-1.020236 44.861744-1.52575 69.275783-1.52575 3.252067 7.724938 6.102998 15.048741 8.544607 21.972431 2.442632 6.91448 4.77884 14.038738 7.018857 21.36254 2.232854 7.323802 4.369517 14.953573 6.40999 22.88829 2.030239 7.934716 4.063549 16.984836 6.104021 27.160593 8.544607-4.482081 17.289782-7.934716 26.243711-10.376325 8.945743-2.441609 17.702174-4.072759 26.245757-4.883217 4.063549-0.410346 6.303566-2.345418 6.713912-5.799076 0.402159-3.461845-1.63115-6.208399-6.101975-8.239662-4.072759-2.040473-9.261944-7.629771-15.565511-16.784268-6.313799-9.155521-14.552437-24.929786-24.718985-47.303352l87.892793 0c28.886911 0 54.321186 0.505513 76.29464 1.52575 21.973454 1.011027 42.515303 2.536776 61.646012 4.578272l0-41.504276c-18.310018 2.031263-38.556131 3.452635-60.731176 4.272303-22.183232 0.810459-47.913243 1.220804-77.209476 1.220804l-100.709703 0c-7.735172-17.909905-15.059997-33.980929-21.973454-48.219211-6.92369-14.248516-13.637602-27.676339-20.141736-40.283472-6.513344-12.617365-13.122879-24.720008-19.836791-36.317137-6.713912-11.597129-13.732769-23.298636-21.057595-35.095309l123.903961 0c0 26.855648-0.409322 50.049906-1.220804 69.581752-0.819668 19.531845-2.240017 35.601846-4.273327 48.218188 8.945743-1.630127 17.492396-2.850931 25.63689-3.662413 8.134261-0.819668 16.268522-1.020236 24.413016-0.60989 6.503111 0.400113 10.07138-1.220804 10.68127-4.883217 0.611937-3.662413-1.935072-6.713912-7.628748-9.155521-3.2623-1.220804-5.798053-4.377704-7.628748-9.460466-1.830695-5.092995-2.7486-12.512988-2.7486-22.278399l0-67.750033c33.361829-0.410346 61.742203-0.209778 85.146239 0.610914 23.393803 0.810459 41.809221 2.231831 55.238069 4.272303l0-37.842887c-11.80793 0.811482-29.202089 1.52575-52.18657 2.136663-22.994714 0.610914-52.396347 0.915859-88.197738 0.915859L596.334757 172.632011c0-11.796674-1.019213-21.457708-3.049452-28.992311-2.042519-7.52437-6.313799-13.732769-12.818957-18.614963-6.513344-4.882194-15.773242-8.639774-27.771507-11.292184-12.005428-2.641153-27.981285-4.777817-47.913243-6.408967-0.409322 17.500583-7.322779 34.390251-20.751626 50.66082 17.090237-3.25309 30.517037-5.28333 40.284495-6.104021 9.765411-0.810459 17.289782-0.401136 22.582321 1.219781 5.284353 1.63115 8.639774 4.682649 10.07138 9.155521 1.421372 4.472871 2.136663 10.576893 2.136663 18.311041L559.104831 349.026464c-30.92943 0-56.258305-0.105401-75.990718-0.304945-19.741623-0.209778-35.706223-0.715291-47.913243-1.52575-12.20702-0.820692-21.467941-1.936095-27.771507-3.356444-6.313799-1.430582-11.292184-3.1569-14.953573-5.188162-0.410346 6.91448-1.735527 14.038738-3.967358 21.36254-2.241041 7.324826-4.988618 13.628392-8.239662 18.921955 5.692652 0.810459 10.881838 2.746554 15.563464 5.799076 4.673439 3.051499 10.376325 9.860579 17.090237 20.446681 6.713912 10.57587 15.154141 26.340925 25.329898 47.303352C448.417893 473.435938 461.445604 502.226658 477.314013 538.849764zM750.145865 149.438777c-8.144494 12.20702-16.994046 24.614607-26.549679 37.231973-9.565866 12.607132-19.532869 24.815175-29.90817 36.622082-10.377348 11.796674-20.751626 22.88829-31.128975 33.264615s-20.246113 19.426445-29.602202 27.160593l27.465538 25.635867c9.356089-8.54563 19.627013-18.520819 30.823006-29.90817 11.186783-11.396561 22.278399-23.193235 33.265638-35.401278 10.986215-12.20702 21.361517-24.214495 31.128975-36.011168 9.765411-11.805884 18.310018-22.382776 25.634844-31.738865L750.145865 149.438777z"  horiz-adv-x="1024" />

    
    <glyph glyph-name="zongshu" unicode="&#58925;" d="M518.8 355.3m-450 0a450 450 0 1 1 900 0 450 450 0 1 1-900 0ZM495.4 569.1h-0.9c-129.8 0-235.1-105.3-235.1-235.1s105.3-235.1 235.1-235.1c129.6 0 234.7 104.8 235.1 234.3H495.4V569.1zM543.1 611.7h-1v-234.4h236.1c-0.4 129.5-105.5 234.4-235.1 234.4z"  horiz-adv-x="1024" />

    
    <glyph glyph-name="keyongjine" unicode="&#59038;" d="M841.142857 138.48381h-23.649524c-6.826667 0-12.190476 5.36381-12.190476 12.190476s5.36381 12.190476 12.190476 12.190476H828.952381V531.992381H146.285714v-9.020952c0-6.826667-5.36381-12.190476-12.190476-12.190477s-12.190476 5.36381-12.190476 12.190477v21.211428c0 6.826667 5.36381 12.190476 12.190476 12.190476h707.047619c6.826667 0 12.190476-5.36381 12.190476-12.190476v-393.752381a12.190476 12.190476 0 0 0-12.190476-11.946666zM914.285714 236.007619h-23.649524c-6.826667 0-12.190476 5.36381-12.190476 12.190476s5.36381 12.190476 12.190476 12.190476H902.095238V605.135238H243.809524v-9.020952c0-6.826667-5.36381-12.190476-12.190476-12.190476s-12.190476 5.36381-12.190477 12.190476v21.211428c0 6.826667 5.36381 12.190476 12.190477 12.190476h682.666666c6.826667 0 12.190476-5.36381 12.190476-12.190476v-369.371428a12.190476 12.190476 0 0 0-12.190476-11.946667zM987.428571 333.531429h-23.649523c-6.826667 0-12.190476 5.36381-12.190477 12.190476s5.36381 12.190476 12.190477 12.190476H975.238095V678.278095H341.333333v-9.020952c0-6.826667-5.36381-12.190476-12.190476-12.190476s-12.190476 5.36381-12.190476 12.190476v21.211428c0 6.826667 5.36381 12.190476 12.190476 12.190477h658.285714c6.826667 0 12.190476-5.36381 12.190477-12.190477v-344.990476a12.190476 12.190476 0 0 0-12.190477-11.946666zM768 40.96h-731.428571c-6.826667 0-12.190476 5.36381-12.190477 12.190476V471.04c0 6.826667 5.36381 12.190476 12.190477 12.190476h731.428571c6.826667 0 12.190476-5.36381 12.190476-12.190476v-418.133333a12.190476 12.190476 0 0 0-12.190476-11.946667z m-719.238095 24.380952h707.047619V458.849524H48.761905v-393.508572zM185.539048 249.904762h-48.761905c-6.826667 0-12.190476 5.36381-12.190476 12.190476s5.36381 12.190476 12.190476 12.190476h48.761905c6.826667 0 12.190476-5.36381 12.190476-12.190476s-5.607619-12.190476-12.190476-12.190476zM667.794286 249.904762h-48.761905c-6.826667 0-12.190476 5.36381-12.190476 12.190476s5.36381 12.190476 12.190476 12.190476h48.761905c6.826667 0 12.190476-5.36381 12.190476-12.190476s-5.36381-12.190476-12.190476-12.190476zM402.285714 297.935238a11.459048 11.459048 0 0 0-8.533333 3.657143l-59.245714 59.245714c-4.87619 4.87619-4.87619 12.434286 0 17.310476s12.434286 4.87619 17.310476 0l50.468571-50.468571 50.468572 50.468571c4.87619 4.87619 12.434286 4.87619 17.310476 0s4.87619-12.434286 0-17.310476l-59.245714-59.245714a11.459048 11.459048 0 0 0-8.533334-3.657143zM481.28 267.459048h-158.232381c-6.826667 0-12.190476 5.36381-12.190476 12.190476s5.36381 12.190476 12.190476 12.190476h158.232381c6.826667 0 12.190476-5.36381 12.190476-12.190476s-5.36381-12.190476-12.190476-12.190476zM481.28 206.750476h-158.232381c-6.826667 0-12.190476 5.36381-12.190476 12.190476s5.36381 12.190476 12.190476 12.190477h158.232381c6.826667 0 12.190476-5.36381 12.190476-12.190477s-5.36381-12.190476-12.190476-12.190476zM402.285714 142.872381c-6.826667 0-12.190476 5.36381-12.190476 12.190476v155.062857c0 6.826667 5.36381 12.190476 12.190476 12.190476s12.190476-5.36381 12.190476-12.190476v-155.062857c0-6.826667-5.36381-12.190476-12.190476-12.190476z"  horiz-adv-x="1024" />

    
    <glyph glyph-name="keyongjine1" unicode="&#59051;" d="M402.285714 257.462857m-170.666666 0a170.666667 170.666667 0 1 1 341.333333 0 170.666667 170.666667 0 1 1-341.333333 0ZM841.142857 138.48381h-23.649524c-6.826667 0-12.190476 5.36381-12.190476 12.190476s5.36381 12.190476 12.190476 12.190476H828.952381V531.992381H146.285714v-9.020952c0-6.826667-5.36381-12.190476-12.190476-12.190477s-12.190476 5.36381-12.190476 12.190477v21.211428c0 6.826667 5.36381 12.190476 12.190476 12.190476h707.047619c6.826667 0 12.190476-5.36381 12.190476-12.190476v-393.752381a12.190476 12.190476 0 0 0-12.190476-11.946666zM914.285714 236.007619h-23.649524c-6.826667 0-12.190476 5.36381-12.190476 12.190476s5.36381 12.190476 12.190476 12.190476H902.095238V605.135238H243.809524v-9.020952c0-6.826667-5.36381-12.190476-12.190476-12.190476s-12.190476 5.36381-12.190477 12.190476v21.211428c0 6.826667 5.36381 12.190476 12.190477 12.190476h682.666666c6.826667 0 12.190476-5.36381 12.190476-12.190476v-369.371428a12.190476 12.190476 0 0 0-12.190476-11.946667zM987.428571 333.531429h-23.649523c-6.826667 0-12.190476 5.36381-12.190477 12.190476s5.36381 12.190476 12.190477 12.190476H975.238095V678.278095H341.333333v-9.020952c0-6.826667-5.36381-12.190476-12.190476-12.190476s-12.190476 5.36381-12.190476 12.190476v21.211428c0 6.826667 5.36381 12.190476 12.190476 12.190477h658.285714c6.826667 0 12.190476-5.36381 12.190477-12.190477v-344.990476a12.190476 12.190476 0 0 0-12.190477-11.946666zM768 40.96h-731.428571c-6.826667 0-12.190476 5.36381-12.190477 12.190476V471.04c0 6.826667 5.36381 12.190476 12.190477 12.190476h731.428571c6.826667 0 12.190476-5.36381 12.190476-12.190476v-418.133333a12.190476 12.190476 0 0 0-12.190476-11.946667z m-719.238095 24.380952h707.047619V458.849524H48.761905v-393.508572zM185.539048 249.904762h-48.761905c-6.826667 0-12.190476 5.36381-12.190476 12.190476s5.36381 12.190476 12.190476 12.190476h48.761905c6.826667 0 12.190476-5.36381 12.190476-12.190476s-5.607619-12.190476-12.190476-12.190476zM667.794286 249.904762h-48.761905c-6.826667 0-12.190476 5.36381-12.190476 12.190476s5.36381 12.190476 12.190476 12.190476h48.761905c6.826667 0 12.190476-5.36381 12.190476-12.190476s-5.36381-12.190476-12.190476-12.190476zM402.285714 297.935238a11.459048 11.459048 0 0 0-8.533333 3.657143l-59.245714 59.245714c-4.87619 4.87619-4.87619 12.434286 0 17.310476s12.434286 4.87619 17.310476 0l50.468571-50.468571 50.468572 50.468571c4.87619 4.87619 12.434286 4.87619 17.310476 0s4.87619-12.434286 0-17.310476l-59.245714-59.245714a11.459048 11.459048 0 0 0-8.533334-3.657143zM481.28 267.459048h-158.232381c-6.826667 0-12.190476 5.36381-12.190476 12.190476s5.36381 12.190476 12.190476 12.190476h158.232381c6.826667 0 12.190476-5.36381 12.190476-12.190476s-5.36381-12.190476-12.190476-12.190476zM481.28 206.750476h-158.232381c-6.826667 0-12.190476 5.36381-12.190476 12.190476s5.36381 12.190476 12.190476 12.190477h158.232381c6.826667 0 12.190476-5.36381 12.190476-12.190477s-5.36381-12.190476-12.190476-12.190476zM402.285714 142.872381c-6.826667 0-12.190476 5.36381-12.190476 12.190476v155.062857c0 6.826667 5.36381 12.190476 12.190476 12.190476s12.190476-5.36381 12.190476-12.190476v-155.062857c0-6.826667-5.36381-12.190476-12.190476-12.190476z"  horiz-adv-x="1024" />

    
    <glyph glyph-name="dongjie1" unicode="&#59252;" d="M514.56-51.2a432.64 432.64 0 1 0 432.64 432.64 433.152 433.152 0 0 0-432.64-432.64z m0 812.30336a379.66336 379.66336 0 1 1 379.66336-379.66336A380.09344 380.09344 0 0 1 514.56 761.10336zM704.39424 301.1072l-31.55968 18.39616 15.09376 2.7392a26.49088 26.49088 0 0 1-9.46176 52.12672l-76.07296-13.824-38.23104 22.28224 37.9136 21.55008 79.79008-10.96192a26.84416 26.84416 0 0 1 3.6352-0.25088 26.49088 26.49088 0 0 1 3.584 52.736l-11.264 1.536 28.52864 16.22016a26.48576 26.48576 0 0 1-26.17344 46.08l-31.744-18.05824 5.21216 14.4384a26.48576 26.48576 0 1 1-49.82272 17.99168l-26.26048-72.704-41.06752-23.3472V483.26656l50.23232 58.77248a26.48576 26.48576 0 1 1-40.26368 34.42176l-9.96864-11.66336v28.54912a26.48576 26.48576 0 1 1-52.97152 0v-24.83712L476.60544 577.536a26.48576 26.48576 0 1 1-42.05568-32.19968l48.95744-63.9488v-51.5328l-45.056 26.2656-25.48224 72.99584a26.48576 26.48576 0 1 1-50.01216-17.45408l5.05856-14.51008-24.66816 14.37696a26.48576 26.48576 0 0 1-26.6752-45.76768l21.4528-12.48768-11.264-1.42336a26.49088 26.49088 0 0 1 3.28704-52.77184 27.648 27.648 0 0 1 3.35872 0.2048l79.90272 10.112 44.5696-25.97888-45.40416-25.81504-75.91424 14.62272a26.49088 26.49088 0 0 1-10.00448-52.00896l15.06304-2.90304-24.82176-14.11072A26.48576 26.48576 0 1 1 343.04 257.14688l21.58592 12.288-4.42368-10.43968a26.49088 26.49088 0 1 1 48.78336-20.6592l31.40096 74.16832 43.10528 24.50432v-41.60512l-48.9472-63.97952a26.48576 26.48576 0 1 1 42.0608-32.19968l6.89664 9.0112v-32.81408a26.48576 26.48576 0 1 1 52.97152 0V211.968l9.96864-11.66336a26.48576 26.48576 0 1 1 40.26368 34.42176l-50.23232 58.77248v44.16512l37.6064-21.92384 30.59712-74.50112a26.49088 26.49088 0 0 1 49.00352 20.13184l-4.31104 10.49088 28.34432-16.52224a26.48576 26.48576 0 1 1 26.68032 45.76768z"  horiz-adv-x="1024" />

    
    <glyph glyph-name="keyongxing" unicode="&#59048;" d="M897.58 616.42c-19.14 4.65-38.27-5.55-45.72-23.09-71.74 119.64-201.72 196.48-347.82 196.48C280.15 789.81 98 607.67 98 383.78s182.15-406.04 406.03-406.04c180.15 0 340.66 120.82 390.32 293.81 6.05 21.08-6.13 43.07-27.21 49.12-21.05 6.06-43.07-6.13-49.12-27.21-39.95-139.14-169.06-236.32-313.99-236.32-180.1 0-326.62 146.52-326.62 326.63 0 180.1 146.52 326.62 326.62 326.62 152.01 0 282.7-103.13 317.79-250.8 5.06-21.33 26.46-34.52 47.81-29.45 15.18 3.61 26.08 15.53 29.37 29.76 1.51 2.86 3.08 5.7 3.87 8.99l24 99.62c5.15 21.33-7.97 42.77-29.29 47.91zM505.71 193.07c-83.49 0-155.25 56.63-174.52 137.72-5.06 21.33-26.45 34.51-47.81 29.45-21.34-5.07-34.52-26.47-29.45-47.81 27.81-117.04 131.34-198.78 251.78-198.78 142.7 0 258.79 116.1 258.79 258.79s-116.1 258.8-258.79 258.8c-72.06 0-139.18-30.36-187.01-80.22-7.75 10.77-20.61 17.51-34.63 16.61-21.89-1.36-38.53-20.21-37.17-42.1l5.44-87.44c0.37-5.91 2.12-11.36 4.75-16.25 3.71-12.59 13.5-23.11 27.06-27 21.05-6.05 43.07 6.14 49.12 27.21 21.94 76.41 92.85 129.77 172.44 129.77 98.91 0 179.38-80.47 179.38-179.38-0.01-98.9-80.48-179.37-179.38-179.37z"  horiz-adv-x="1024" />

    
    <glyph glyph-name="xiala" unicode="&#58892;" d="M915.110634 369.05146c-11.698858 11.698858-30.697002 11.698858-42.39586 0L490.852065-12.711259c-11.698858-11.698858-11.698858-30.697002 0-42.395859s30.697002-11.698858 42.39586 0l381.762718 381.762718c11.798848 11.698858 11.798848 30.697002 0.099991 42.39586zM534.247827-12.811249l-381.962699 381.962699c-11.698858 11.698858-30.697002 11.698858-42.395859 0s-11.698858-30.697002 0-42.39586l381.962699-381.962699c11.698858-11.698858 30.697002-11.698858 42.395859 0s11.698858 30.697002 0 42.39586zM915.110634 823.007128c-11.698858 11.698858-30.697002 11.698858-42.39586 0L490.852065 441.24441c-11.698858-11.698858-11.698858-30.697002 0-42.39586s30.697002-11.698858 42.39586 0l381.762718 381.762718c11.798848 11.698858 11.798848 30.697002 0.099991 42.39586zM534.247827 441.144419l-381.962699 381.962699c-11.698858 11.698858-30.697002 11.698858-42.395859 0s-11.698858-30.697002 0-42.395859l381.962699-381.962699c11.698858-11.698858 30.697002-11.698858 42.395859 0s11.698858 30.697002 0 42.395859z"  horiz-adv-x="1024" />

    
    <glyph glyph-name="shangla" unicode="&#58922;" d="M3.132004-99.918816c0-7.878308 3.290694-15.708224 9.717226-21.254011 11.730356-10.133401 29.45171-8.836481 39.585111 2.893875L542.012158 448.601135l489.577817-566.880087c10.133401-11.730356 27.854756-13.027276 39.585111-2.893875 11.730356 10.133401 13.027276 27.854756 2.893875 39.585112L563.266169 509.895148c-5.33286 6.17489-13.085347 9.717225-21.244332 9.717225s-15.911473-3.552014-21.244333-9.717225L9.955355-81.587715a27.95638 27.95638 0 0 1-6.823351-18.331101zM3.132004 276.47849c0-7.878308 3.290694-15.708224 9.717226-21.254011 11.730356-10.133401 29.45171-8.836481 39.585111 2.893875L542.021837 824.998441l489.577817-566.880087c10.133401-11.730356 27.854756-13.027276 39.585111-2.893875 11.730356 10.133401 13.027276 27.854756 2.893875 39.585111L563.266169 886.282775c-5.33286 6.17489-13.085347 9.717225-21.244332 9.717225s-15.911473-3.552014-21.244333-9.717225L9.955355 294.80959a27.974769 27.974769 0 0 1-6.823351-18.3311z"  horiz-adv-x="1140" />

    
    <glyph glyph-name="xiala-copy" unicode="&#59074;" d="M108.889366 398.94854c11.698858-11.698858 30.697002-11.698858 42.39586 0L533.147935 780.711259c11.698858 11.698858 11.698858 30.697002 0 42.395859s-30.697002 11.698858-42.39586 0l-381.762718-381.762718c-11.798848-11.69885799-11.798848-30.69700201-0.099991-42.39586zM489.752173 780.811249l381.962699-381.962699c11.698858-11.698858 30.697002-11.698858 42.395859 0s11.698858 30.697002 0 42.39586l-381.962699 381.96269899c-11.698858 11.698858-30.697002 11.698858-42.395859 1e-8s-11.698858-30.697002 0-42.39586zM108.889366-55.007127999999966c11.698858-11.698858 30.697002-11.698858 42.39586 0L533.147935 326.75559c11.698858 11.698858 11.698858 30.697002 0 42.39586s-30.697002 11.698858-42.39586 0l-381.762718-381.762718c-11.798848-11.69885799-11.798848-30.69700201-0.099991-42.39586zM489.752173 326.85558100000003l381.962699-381.962699c11.698858-11.698858 30.697002-11.698858 42.395859 0s11.698858 30.697002 0 42.395859l-381.962699 381.96269901c-11.698858 11.698858-30.697002 11.698858-42.395859-1e-8s-11.698858-30.697002 0-42.395859z"  horiz-adv-x="1024" />

    
    <glyph glyph-name="genzong" unicode="&#58883;" d="M512.001824 480.573871c53.231847 0 96.538598-43.30675 96.538598-96.538598s-43.30675-96.538598-96.538598-96.538598-96.538598 43.30675-96.538597 96.538598 43.30675 96.538598 96.538597 96.538598m0 44.821057c-78.071349 0-141.359655-63.289522-141.359655-141.359655s63.289522-141.359655 141.359655-141.359655 141.359655 63.289522 141.359656 141.359655-63.288306 141.359655-141.359656 141.359655zM512.001824 752.950889c49.823744 0 98.131965-9.747516 143.585505-28.972526 43.924636-18.579149 83.382979-45.184734 117.277915-79.080887 33.894936-33.894936 60.501738-73.353279 79.080887-117.277915 19.22501-45.452323 28.972526-93.76176 28.972526-143.585504s-9.747516-98.131965-28.972526-143.585504c-18.579149-43.924636-45.184734-83.382979-79.080887-117.277916-33.894936-33.894936-73.353279-60.501738-117.277915-79.080887-45.452323-19.22501-93.76176-28.972526-143.585505-28.972526s-98.131965 9.747516-143.585504 28.972526c-43.924636 18.579149-83.382979 45.184734-117.277915 79.080887-33.894936 33.894936-60.501738 73.353279-79.080887 117.277916-19.22501 45.452323-28.972526 93.76176-28.972526 143.585504s9.747516 98.131965 28.972526 143.585504c18.579149 43.924636 45.184734 83.382979 79.080887 117.277915s73.353279 60.501738 117.277915 79.080887c45.453539 19.22501 93.76176 28.972526 143.585504 28.972526m0 44.821057c-228.501035 0-413.736673-185.236855-413.736673-413.736673s185.236855-413.736673 413.736673-413.736673S925.738498 155.534238 925.738498 384.035273 740.502859 797.771946 512.001824 797.771946zM512.001824 713.03643c7.53383 0 15.001979-0.277319 22.410529-0.77479V842.659901h-44.821057v-130.398261c7.407333 0.497471 14.875483 0.77479 22.410528 0.77479zM534.412353 652.229398a299.998223 299.998223 0 0 1-44.821057 0v-245.784813H243.806483a299.998223 299.998223 0 0 1 0-44.821057h245.784813v-233.621704a299.998223 299.998223 0 0 1 44.821057 0V361.624744h245.783597a299.998223 299.998223 0 0 1 0 44.821058H534.412353V652.229398zM840.226975 406.445802c0.498687-7.407333 0.77479-14.876699 0.77479-22.410529s-0.277319-15.001979-0.77479-22.410529H970.625236v44.821058H840.226975zM183.000668 384.035273c0 7.53383 0.277319 15.001979 0.776006 22.410529H53.377197v-44.821058H183.776674c-0.498687 7.407333-0.776006 14.876699-0.776006 22.410529zM512.001824 55.034116c-7.53383 0-15.001979 0.277319-22.410528 0.77479v-130.398261h44.821057V55.808906c-7.40855-0.497471-14.876699-0.77479-22.410529-0.77479z"  horiz-adv-x="1024" />

    
    <glyph glyph-name="dc-icon-jishuzhuanyi" unicode="&#58951;" d="M959.443478 477.495652C792.486957 1185.391304 140.243478 773.565217 140.243478 773.565217 765.773913 1060.730435 854.817391 517.565217 861.495652 477.495652h-75.686956l120.208695-160.278261 120.208696 160.278261h-66.782609zM162.504348 290.504348h75.686956L120.208696 450.782609 0 290.504348h64.556522C231.513043-417.391304 883.756522-5.565217 883.756522-5.565217 258.226087-292.730435 169.182609 250.434783 162.504348 290.504348zM353.947826 448.556522c42.295652 6.678261 75.686957 42.295652 75.686957 86.817391 0 48.973913-40.069565 89.043478-89.043479 89.043478s-89.043478-40.069565-89.043478-89.043478c0-37.843478 24.486957-71.234783 57.878261-82.365217v-140.243479c0-40.069565 20.034783-73.46087 51.2-93.495652 8.904348-28.93913 33.391304-48.973913 64.556522-48.973913s57.878261 22.26087 64.556521 51.2c28.93913 20.034783 46.747826 53.426087 46.747827 91.269565v164.730435c0 17.808696 6.678261 33.391304 17.808695 46.747826 11.130435-20.034783 33.391304-35.617391 57.878261-35.617391 20.034783 0 37.843478 8.904348 51.2 22.26087 6.678261-11.130435 8.904348-22.26087 8.904348-33.391305v-144.695652c-33.391304-13.356522-55.652174-44.521739-55.652174-82.365217 0-48.973913 40.069565-89.043478 89.043478-89.043479s89.043478 40.069565 89.043478 89.043479c0 44.521739-33.391304 82.365217-77.913043 89.043478v140.243478c0 33.391304-15.582609 62.330435-37.843478 84.591304-2.226087 33.391304-31.165217 60.104348-66.782609 60.104348-28.93913 0-55.652174-20.034783-62.330435-46.747826-37.843478-22.26087-60.104348-60.104348-60.104348-102.4v-164.730435c0-13.356522-4.452174-26.713043-11.130434-37.843478-11.130435 17.808696-31.165217 28.93913-55.652174 28.939131s-44.521739-13.356522-55.652174-31.165218c-8.904348 11.130435-13.356522 24.486957-13.356522 40.069565v138.017392z m394.017391-200.347826c0-24.486957-20.034783-44.521739-44.521739-44.521739s-44.521739 20.034783-44.521739 44.521739 20.034783 44.521739 44.521739 44.521739 44.521739-20.034783 44.521739-44.521739zM296.069565 535.373913c0 24.486957 20.034783 44.521739 44.521739 44.521739s44.521739-20.034783 44.521739-44.521739-20.034783-44.521739-44.521739-44.521739-44.521739 20.034783-44.521739 44.521739z"  horiz-adv-x="1026" />

    
    <glyph glyph-name="noread" unicode="&#58919;" d="M884.364 721.091l-744.727 0c-51.433 0-93.091-41.705-93.091-93.091l0-558.545c0-51.433 41.658-93.091 93.091-93.091l744.727 0c51.433 0 93.091 41.658 93.091 93.091l0 558.545c0 51.386-41.658 93.091-93.091 93.091zM930.909 69.455c0-25.693-20.852-46.545-46.545-46.545l-744.727 0c-25.693 0-46.545 20.852-46.545 46.545l0 558.545c0 25.693 20.852 46.545 46.545 46.545l744.727 0c25.693 0 46.545-20.852 46.545-46.545l0-558.545zM313.577 264.713l-148.108-148.108c-9.076-9.076-9.076-23.831 0-32.908 9.076-9.076 23.831-9.076 32.908 0l148.108 148.108c9.076 9.076 9.076 23.831 0 32.908-9.076 9.076-23.785 9.076-32.908 0zM544.908 326.153c-18.199-18.199-47.663-18.199-65.815 0l-278.575 278.575-65.862 0 344.436-344.436c18.199-18.153 47.663-18.153 65.815 0l344.436 344.436-65.815 0-278.621-278.575zM710.423 264.713c-9.076 9.076-23.831 9.076-32.908 0-9.076-9.076-9.076-23.831 0-32.908l148.108-148.108c9.076-9.076 23.831-9.076 32.908 0 9.076 9.076 9.076 23.831 0 32.908l-148.108 148.108z"  horiz-adv-x="1024" />

    
    <glyph glyph-name="read" unicode="&#58931;" d="M978.013 544.265l-432.873 315.857c-8.844 9.309-23.599 9.681-32.908 0.838-0.093-0.093-0.14-0.233-0.233-0.372-0.093 0.093-0.14 0.279-0.279 0.372-9.309 8.844-24.064 8.471-32.908-0.838l-432.873-315.857c-8.704-9.169-8.378-23.599 0.605-32.489l0-512.14c0-51.386 41.658-93.091 93.091-93.091l744.727 0c51.433 0 93.091 41.658 93.091 93.091l0 512.14c8.983 8.89 9.309 23.319 0.559 32.489zM930.909 22.909c0-38.54-31.279-69.818-69.818-69.818l-698.182 0c-38.54 0-69.818 31.279-69.818 69.818l0 499.06 418.909 305.664 418.909-305.664 0-499.06zM479.092 302.88l-267.59 185.484-75.776 0 343.366-251.345c18.199-18.199 47.663-18.199 65.815 0l343.366 251.345-75.776 0-267.59-185.484c-18.153-18.199-47.663-18.199-65.815 0zM313.577 194.895l-148.108-148.108c-9.076-9.076-9.076-23.831 0-32.908 9.076-9.076 23.831-9.076 32.908 0l148.108 148.108c9.076 9.076 9.076 23.831 0 32.908-9.076 9.076-23.785 9.076-32.908 0zM710.423 194.895c-9.076 9.076-23.831 9.076-32.908 0-9.076-9.076-9.076-23.831 0-32.908l148.108-148.108c9.076-9.076 23.831-9.076 32.908 0 9.076 9.076 9.076 23.831 0 32.908l-148.108 148.108z"  horiz-adv-x="1024" />

    
    <glyph glyph-name="tixing" unicode="&#59073;" d="M525.548062 602.706117c-1.77032 5.624091-6.890944 9.812483-13.166881 9.812483-6.315846 0-11.416004-4.188392-13.166881-9.812483 4.329609 0.349971 8.752338 0.660032 13.166881 0.660032C516.782422 603.365126 521.178545 603.055065 525.548062 602.706117zM642.664434 449.494667c0 60.321854-63.329351 117.322056-130.283252 117.322056-66.963111 0-130.297578-57.000202-130.297578-117.322056l0-138.616034c0-31.764448-10.470469-55.706743-24.226774-73.121368l309.009819 0c-13.743002 17.414625-24.201192 41.35692-24.201192 73.121368L642.665457 449.494667zM511.986185 767.91481c-212.028021 0-383.901507-171.879626-383.901507-383.91481 0-212.034161 171.873486-383.91481 383.901507-383.91481 212.047464 0 383.928113 171.880649 383.928113 383.91481C895.914298 596.035184 724.033649 767.91481 511.986185 767.91481zM512.381182 128.06191c-34.215266 0-62.061474 26.127054-64.648392 59.107189 0.447185 2.638083 2.482541 4.693906 5.262864 4.875031l26.619264 0c2.559289-0.206708 4.6673-1.888 5.287423-4.267187 2.108011-13.08297 13.57518-23.167652 27.479865-23.167652 13.879102 0 25.345248 10.058077 27.491121 23.103184 0.607844 2.391467 2.675946 4.123924 5.255701 4.330632l26.619264 0c2.786463-0.181125 4.828982-2.236947 5.255701-4.875031C574.417073 154.188964 546.621007 128.06191 512.381182 128.06191zM716.089723 201.183278 307.624774 201.183278c-10.839883 0-19.624966 8.623401-19.624966 19.289322 0 7.497765 4.376681 13.975293 10.763135 17.168008 8.740058 3.388167 46.101991 20.917402 46.101991 73.238025L344.864934 449.494667c0 67.407226 55.984059 129.603777 125.623116 148.144038l0 1.175779c0 22.663162 18.797112 41.12463 41.893132 41.12463 23.082718 0 41.854247-18.461467 41.854247-41.12463l0-1.175779c69.656453-18.539238 125.648698-80.735789 125.648698-148.144038l0-138.616034c0-48.764634 32.474622-67.303872 43.942815-72.345702 0.01228 0-0.046049-0.013303-0.046049-0.013303 7.117095-2.961448 12.082176-9.864672 12.082176-17.919115C735.863069 209.88445 727.02068 201.183278 716.089723 201.183278z"  horiz-adv-x="1024" />

    


  </font>
</defs></svg>
